{"spider":"./spider.jar;md5;e698de333eeca1e04fa5927069b9d215",
"wallpaper":"https://api.likepoems.com/img/bing",
"sites":
	[{"key":"豆瓣","name":"豆瓣","type":3,"api":"./JS/drpy.min.js","ext":"./JS/豆瓣.js","searchable":0,"quickSearch":0,"filterable":1},
	{"key":"机器人","name":"机器人","type":3,"api":"./JS/机器人.js","searchable":1,"quickSearch":1,"filterable":1},
	{"key":"九九六","name":"九九六","type":3,"api":"csp_AppYsV2","searchable":1,"quickSearch":1,"filterable":1,"ext":"http://dytt996.com/api.php/app/"},
	{"key":"北极狐","name":"北极狐","type":3,"api":"csp_AppYsV2","searchable":1,"quickSearch":1,"filterable":1,"ext":"https://www.kuin.one/api.php/app/"},
	{"key":"迷你库","name":"迷你库","type":3,"api":"csp_AppYsV2","searchable":1,"quickSearch":1,"filterable":1,"ext":"http://www.miniku.cc/xgapp.php/v1/"},
	{"key":"萌蛋蛋","name":"萌蛋蛋","type":3,"api":"csp_AppYsV2","searchable":1,"quickSearch":1,"filterable":1,"ext":"http://app.mengdandan.com/xgapp.php/v1/"},
	{"key":"平头哥","name":"平头哥","type":3,"api":"csp_AppYsV2","searchable":1,"quickSearch":1,"filterable":1,"ext":"http://pingtouge.top/ruifenglb_api.php/v1.vod"},
	{"key":"看看剧","name":"看看剧","type":3,"api":"csp_XBPQ","searchable":1,"quickSearch":1,"filterable":1,"ext":"./XBPQ/看看剧.json"},
	{"key":"剧白白","name":"剧白白","type":3,"api":"csp_XBPQ","searchable":1,"quickSearch":1,"filterable":1,"ext":"./XBPQ/剧白白.json"},
	{"key":"视频库","name":"视频库","type":3,"api":"csp_XYQHiker","searchable":1,"quickSearch":1,"filterable":1,"ext":"./XYQHiker/视频库.json"},
	{"key":"臭蛋蛋","name":"臭蛋蛋","type":3,"api":"csp_XYQHiker","searchable":1,"quickSearch":1,"filterable":1,"ext":"./XYQHiker/臭蛋蛋.json"},
	{"key":"电影港","name":"电影港","type":3,"api":"csp_XYQHiker","searchable":1,"quickSearch":1,"filterable":1,"ext":"./XYQHiker/电影港.json"},
	{"key":"红领巾","name":"红领巾","type":3,"api":"csp_XYQHiker","searchable":1,"quickSearch":1,"filterable":1,"ext":"./XYQHiker/红领巾.json"},
	{"key":"素白白","name":"素白白","type":3,"api":"csp_XYQHiker","searchable":1,"quickSearch":1,"filterable":1,"ext":"./XYQHiker/素白白.json"},
	{"key":"电影牛","name":"电影牛","type":3,"api":"csp_XYQHiker","searchable":1,"quickSearch":1,"filterable":1,"ext":"./XYQHiker/电影牛.json"},
	{"key":"三四八","name":"三四八","type":3,"api":"csp_XYQHiker","searchable":1,"quickSearch":1,"filterable":1,"ext":"./XYQHiker/三四八.json"},
	{"key":"爱奇艺","name":"爱奇艺","type":3,"api":"./JS/drpy.min.js","ext":"./JS/爱奇艺.js"},
	{"key":"慢大浪","name":"慢大浪","type":3,"api":"./JS/drpy.min.js","ext":"./JS/慢大浪.js"},
	{"key":"落攻阁","name":"落攻阁","type":3,"api":"./JS/drpy.min.js","ext":"./JS/落攻阁.js"},
	{"key":"皮皮鸭","name":"皮皮鸭","type":3,"api":"./JS/drpy.min.js","ext":"./JS/皮皮鸭.js"},
	{"key":"追剧迷","name":"追剧迷","type":3,"api":"./JS/drpy.min.js","ext":"./JS/追剧迷.js"},
	{"key":"一三九","name":"一三九","type":3,"api":"./JS/drpy.min.js","ext":"./JS/一三九.js"},
	{"key":"影渣渣","name":"影渣渣","type":3,"api":"./JS/drpy.min.js","ext":"./JS/影渣渣.js"},
	{"key":"小猫咪","name":"小猫咪","type":3,"api":"./JS/drpy.min.js","ext":"./JS/小猫咪.js"},
	{"key":"七小时","name":"七小时","type":3,"api":"./JS/drpy.min.js","ext":"./JS/七小时.js"},
	{"key":"视中心","name":"视中心","type":3,"api":"./JS/drpy.min.js","ext":"./JS/视中心.js"},
	{"key":"看看屋","name":"看看屋","type":3,"api":"./JS/drpy.min.js","ext":"./JS/看看屋.js"},
	{"key":"达达龟","name":"达达龟","type":3,"api":"./JS/drpy.min.js","ext":"./JS/达达龟.js"},
	{"key":"四个圈","name":"四个圈","type":3,"api":"./JS/drpy.min.js","ext":"./JS/四个圈.js"},
	{"key":"看了么","name":"看了么","type":3,"api":"./JS/drpy.min.js","ext":"./JS/看了么.js"},
	{"key":"零零七","name":"零零七","type":3,"api":"./JS/drpy.min.js","ext":"./JS/零零七.js"},
	{"key":"小白菜","name":"小白菜","type":3,"api":"./JS/drpy.min.js","ext":"./JS/小白菜.js"},
	{"key":"一零一","name":"一零一","type":3,"api":"./JS/drpy.min.js","ext":"./JS/一零一.js"},
	{"key":"三四五","name":"三四五","type":3,"api":"./JS/drpy.min.js","ext":"./JS/三四五.js"},
	{"key":"免费看","name":"免费看","type":3,"api":"./JS/drpy.min.js","ext":"./JS/免费看.js"},
	{"key":"看韩剧","name":"看韩剧","type":3,"api":"./JS/drpy.min.js","ext":"./JS/看韩剧.js"},
	{"key":"花猫TV","name":"花猫TV","type":3,"api":"./JS/drpy.min.js","ext":"./JS/花猫TV.js"},
	{"key":"六度TV","name":"六度TV","type":3,"api":"./JS/drpy.min.js","ext":"./JS/六度TV.js"},
	{"key":"网飞TV","name":"网飞TV","type":3,"api":"./JS/drpy.min.js","ext":"./JS/网飞TV.js"},
	{"key":"九一免费","name":"九一免费","type":3,"api":"./JS/drpy.min.js","ext":"./JS/91Free.js"},
	{"key":"魔力高清","name":"魔力高清","type":3,"api":"./JS/drpy.min.js","ext":"./JS/HDmoli.js"},
	{"key":"可乐影视","name":"可乐影视","type":3,"api":"./JS/drpy.min.js","ext":"./JS/CokeMV.js"},
	{"key":"腾讯视频","name":"腾讯视频","type":3,"api":"./JS/drpy.min.js","ext":"./JS/腾讯视频.js"},
	{"key":"优酷视频","name":"优酷视频","type":3,"api":"./JS/drpy.min.js","ext":"./JS/优酷视频.js"},
	{"key":"芒果视频","name":"芒果视频","type":3,"api":"./JS/drpy.min.js","ext":"./JS/芒果视频.js"},
	{"key":"快看影视","name":"快看影视","type":3,"api":"./JS/drpy.min.js","ext":"./JS/快看影视.js"},
	{"key":"乐鱼影视","name":"乐鱼影视","type":3,"api":"./JS/drpy.min.js","ext":"./JS/乐鱼影视.js"},
	{"key":"胖虎影视","name":"胖虎影视","type":3,"api":"./JS/drpy.min.js","ext":"./JS/胖虎影视.js"},
	{"key":"南柯电影","name":"南柯电影","type":3,"api":"./JS/drpy.min.js","ext":"./JS/南柯电影.js"},
	{"key":"速看一百","name":"速看一百","type":3,"api":"./JS/drpy.min.js","ext":"./JS/速看一百.js"},
	{"key":"米爱影视","name":"米爱影视","type":3,"api":"./JS/drpy.min.js","ext":"./JS/米爱影视.js"},
	{"key":"酷云七七","name":"酷云七七","type":3,"api":"./JS/drpy.min.js","ext":"./JS/酷云七七.js"},
	{"key":"城市电影","name":"城市电影","type":3,"api":"./JS/drpy.min.js","ext":"./JS/城市电影.js"},
	{"key":"碟调影视","name":"碟调影视","type":3,"api":"./JS/drpy.min.js","ext":"./JS/碟调影视.js"},
	{"key":"番茄影视","name":"番茄影视","type":3,"api":"./JS/drpy.min.js","ext":"./JS/番茄影视.js"},
	{"key":"麻花影视","name":"麻花影视","type":3,"api":"./JS/drpy.min.js","ext":"./JS/麻花影视.js"},
	{"key":"八号影院","name":"八号影院","type":3,"api":"./JS/drpy.min.js","ext":"./JS/八号影院.js"},
	{"key":"首播影院","name":"首播影院","type":3,"api":"./JS/drpy.min.js","ext":"./JS/首播影院.js"},
	{"key":"北川影视","name":"北川影视","type":3,"api":"./JS/drpy.min.js","ext":"./JS/北川影视.js"},
	{"key":"免费影视","name":"免费影视","type":3,"api":"./JS/drpy.min.js","ext":"./JS/免费影视.js"},
	{"key":"七喜影院","name":"七喜影院","type":3,"api":"./JS/drpy.min.js","ext":"./JS/七喜影院.js"},
	{"key":"思古影视","name":"思古影视","type":3,"api":"./JS/drpy.min.js","ext":"./JS/思古影视.js"},
	{"key":"星空影视","name":"星空影视","type":3,"api":"./JS/drpy.min.js","ext":"./JS/星空影视.js"},
	{"key":"九优电影","name":"九优电影","type":3,"api":"./JS/drpy.min.js","ext":"./JS/九优电影.js"},
	{"key":"量子影视","name":"量子影视","type":3,"api":"./JS/drpy.min.js","ext":"./JS/量子影视.js"},
	{"key":"在线之家","name":"在线之家","type":3,"api":"./JS/drpy.min.js","ext":"./JS/在线之家.js"},
	{"key":"饭团影视","name":"饭团影视","type":3,"api":"./JS/drpy.min.js","ext":"./JS/饭团影视.js"},
	{"key":"飞兔影视","name":"飞兔影视","type":3,"api":"./JS/drpy.min.js","ext":"./JS/飞兔影视.js"},
	{"key":"欧帝影院","name":"欧帝影院","type":3,"api":"./JS/drpy.min.js","ext":"./JS/欧帝影院.js"},
	{"key":"万博剧院","name":"万博剧院","type":3,"api":"./JS/drpy.min.js","ext":"./JS/万博剧院.js"},
	{"key":"我爱跟剧","name":"我爱跟剧","type":3,"api":"./JS/drpy.min.js","ext":"./JS/我爱跟剧.js"},
	{"key":"蛋蛋魔法","name":"蛋蛋魔法","type":3,"api":"./JS/drpy.min.js","ext":"./JS/蛋蛋魔法.js"},
	{"key":"吼吼影视","name":"吼吼影视","type":3,"api":"./JS/drpy.min.js","ext":"./JS/吼吼影视.js"},
	{"key":"宅腐影视","name":"宅腐影视","type":3,"api":"./JS/drpy.min.js","ext":"./JS/宅腐影视.js"},
	{"key":"小狗影院","name":"小狗影院","type":3,"api":"./JS/drpy.min.js","ext":"./JS/小狗影院.js"},
	{"key":"两个磁力","name":"两个磁力","type":3,"api":"./JS/drpy.min.js","ext":"./JS/两个磁力.js"},
	{"key":"起飞影院","name":"起飞影院","type":3,"api":"./JS/drpy.min.js","ext":"./JS/起飞影院.js"},
	{"key":"兄弟影视","name":"兄弟影视","type":3,"api":"./JS/drpy.min.js","ext":"./JS/兄弟影视.js"},
	{"key":"天空影视","name":"天空影视","type":3,"api":"./JS/drpy.min.js","ext":"./JS/天空影视.js"},
	{"key":"稀饭影视","name":"稀饭影视","type":3,"api":"./JS/drpy.min.js","ext":"./JS/稀饭影视.js"},
	{"key":"蜥蜴影视","name":"蜥蜴影视","type":3,"api":"./JS/drpy.min.js","ext":"./JS/蜥蜴影视.js"},
	{"key":"朴樱影视","name":"朴樱影视","type":3,"api":"./JS/drpy.min.js","ext":"./JS/朴樱影视.js"},
	{"key":"爱迪影视","name":"爱迪影视","type":3,"api":"./JS/drpy.min.js","ext":"./JS/爱迪影视.js"},
	{"key":"热播之家","name":"热播之家","type":3,"api":"./JS/drpy.min.js","ext":"./JS/热播之家.js"},
	{"key":"金曼影视","name":"金曼影视","type":3,"api":"./JS/drpy.min.js","ext":"./JS/金曼影视.js"},
	{"key":"影探蓝光","name":"影探蓝光","type":3,"api":"./JS/drpy.min.js","ext":"./JS/影探蓝光.js"},
	{"key":"酷影蓝光","name":"酷影蓝光","type":3,"api":"./JS/drpy.min.js","ext":"./JS/酷影蓝光.js"},
	{"key":"奇优影院","name":"奇优影院","type":3,"api":"csp_XBPQ","searchable":1,"quickSearch":1,"filterable":1,"ext":"./XBPQ/奇优影院.json"},
	{"key":"骚火电影","name":"骚火电影","type":3,"api":"csp_XBPQ","searchable":1,"quickSearch":1,"filterable":1,"ext":"./XBPQ/骚火电影.json"},
	{"key":"冷曦影视","name":"冷曦影视","type":3,"api":"csp_XBPQ","searchable":1,"quickSearch":1,"filterable":1,"ext":"./XBPQ/冷曦影视.json"},
	{"key":"明帝影视","name":"明帝影视","type":3,"api":"csp_XBPQ","searchable":1,"quickSearch":1,"filterable":1,"ext":"./XBPQ/明帝影视.json"},
	{"key":"六六影院","name":"六六影院","type":3,"api":"csp_XBPQ","searchable":1,"quickSearch":1,"filterable":1,"ext":"./XBPQ/六六影院.json"},
	{"key":"农民影视","name":"农民影视","type":3,"api":"csp_XBPQ","searchable":1,"quickSearch":1,"filterable":1,"ext":"./XBPQ/农民影视.json"},
	{"key":"秋霞影视","name":"秋霞影视","type":3,"api":"csp_XBPQ","searchable":1,"quickSearch":1,"filterable":1,"ext":"./XBPQ/秋霞影视.json"},
	{"key":"石榴高清","name":"石榴高清","type":3,"api":"csp_XBPQ","searchable":1,"quickSearch":1,"filterable":1,"ext":"./XBPQ/石榴高清.json"},
	{"key":"七新影视","name":"七新影视","type":3,"api":"csp_XYQHiker","searchable":1,"quickSearch":1,"filterable":1,"ext":"./XYQHiker/七新影视.json"},
	{"key":"星辰影院","name":"星辰影院","type":3,"api":"csp_XYQHiker","searchable":1,"quickSearch":1,"filterable":1,"ext":"./XYQHiker/星辰影院.json"},
	{"key":"子子影视","name":"子子影视","type":3,"api":"csp_XYQHiker","searchable":1,"quickSearch":1,"filterable":1,"ext":"./XYQHiker/子子影视.json"},
	{"key":"蓝光影院","name":"蓝光影院","type":3,"api":"csp_XYQHiker","searchable":1,"quickSearch":1,"filterable":1,"ext":"./XYQHiker/蓝光影院.json"},
	{"key":"极客影院","name":"极客影院","type":3,"api":"csp_XYQHiker","searchable":1,"quickSearch":1,"filterable":1,"ext":"./XYQHiker/极客影院.json"},
	{"key":"锐行加速","name":"‍锐行加速","type":3,"api":"csp_XYQHiker","searchable":1,"quickSearch":1,"filterable":1,"ext":"./XYQHiker/锐行加速.json"},
	{"key":"疯狗影视","name":"‍疯狗影视","type":3,"api":"csp_XYQHiker","searchable":1,"quickSearch":1,"filterable":1,"ext":"./XYQHiker/疯狗影视.json"},
	{"key":"电影盒子","name":"电影盒子","type":3,"api":"csp_XYQHiker","searchable":1,"quickSearch":1,"filterable":1,"ext":"./XYQHiker/电影盒子.json"},
	{"key":"一龙高清","name":"一龙高清","type":3,"api":"csp_XYQHiker","searchable":1,"quickSearch":1,"filterable":1,"ext":"./XYQHiker/一龙高清.json"},
	{"key":"深蓝影视","name":"深蓝影视","type":3,"api":"csp_XYQHiker","searchable":1,"quickSearch":1,"filterable":1,"ext":"./XYQHiker/深蓝影视.json"},
	{"key":"云镜影视","name":"云镜影视","type":3,"api":"csp_XYQHiker","searchable":1,"quickSearch":1,"filterable":1,"ext":"./XYQHiker/云镜影视.json"},
	{"key":"速搜影院","name":"速搜影院","type":3,"api":"csp_XYQHiker","searchable":1,"quickSearch":1,"filterable":1,"ext":"./XYQHiker/速搜影院.json"},
	{"key":"厂长影视","name":"厂长影视","type":3,"api":"csp_XYQHiker","searchable":1,"quickSearch":1,"filterable":1,"ext":"./XYQHiker/厂长影视.json"},
	{"key":"多线资源","name":"多线资源","type":3,"api":"csp_AppYsV2","searchable":1,"quickSearch":1,"filterable":1,"ext":"http://117.175.212.198:8088/api.php/app/"},
	{"key":"鸭鸭影视","name":"鸭鸭影视","type":3,"api":"csp_AppYsV2","searchable":1,"quickSearch":1,"filterable":1,"ext":"https://yayayaaapp.ynf.icu/api.php/app/"},
	{"key":"影图资源","name":"影图资源","type":1,"api":"https://cj.vodimg.top/api.php/provide/vod/","searchable":1,"quickSearch":1},
	{"key":"暴风资源","name":"暴风资源","type":1,"api":"https://bfzyapi.com/api.php/provide/vod/","searchable":1,"quickSearch":1,"categories":["海外剧","泰国剧","香港剧","韩国剧","台湾剧","日本剧","欧美剧","国产剧","日韩动漫","欧美动漫","港台动漫","海外动漫","国产动漫","欧美综艺","大陆综艺","港台综艺","日韩综艺","纪录片","战争片","剧情片","爱情片","科幻片","恐怖片","喜剧片","动作片","动画片"]},
	{"key":"非凡资源","name":"非凡资源","type":1,"api":"http://cj.ffzyapi.com/api.php/provide/vod/","searchable":1,"changeable":1,"categories":["动作片","喜剧片","科幻片","恐怖片","爱情片","剧情片","战争片","记录片","国产剧","欧美剧","香港剧","韩国剧","台湾剧","日本剧","海外剧","泰国剧","国产动漫","日韩动漫","欧美动漫","港台动漫","海外动漫","大陆综艺","港台综艺","日韩综艺","欧美综艺"]},
	{"key":"量子资源","name":"量子资源","type":1,"api":"https://cj.lziapi.com/api.php/provide/vod/","searchable":1,"changeable":1,"categories":["动作片","喜剧片","科幻片","恐怖片","爱情片","剧情片","战争片","记录片","国产剧","欧美剧","香港剧","韩国剧","台湾剧","日本剧","海外剧","泰国剧","国产动漫","日韩动漫","欧美动漫","港台动漫","海外动漫","大陆综艺","港台综艺","日韩综艺","欧美综艺"]},
	{"key":"AnFuns","name":"AnFuns","type":3,"api":"./JS/drpy.min.js","ext":"./JS/AnFuns.js"},
	{"key":"NyaFun","name":"NyaFun","type":3,"api":"./JS/drpy.min.js","ext":"./JS/NyaFun.js"},
	{"key":"OmoFun","name":"OmoFun","type":3,"api":"./JS/drpy.min.js","ext":"./JS/OmoFun.js"},
	{"key":"AGE动漫","name":"AGE动漫","type":3,"api":"./JS/drpy.min.js","ext":"./JS/AGE动漫.js"},
	{"key":"NT动漫","name":"NT动漫","type":3,"api":"./JS/drpy.min.js","ext":"./JS/NT动漫.js"},
	{"key":"二三三","name":"二三三","type":3,"api":"csp_XBPQ","searchable":1,"quickSearch":1,"filterable":1,"ext":"./XBPQ/二三三.json"},
	{"key":"路漫漫","name":"路漫漫","type":3,"api":"./JS/drpy.min.js","ext":"./JS/路漫漫.js"},
	{"key":"动漫岛","name":"动漫岛","type":3,"api":"./JS/drpy.min.js","ext":"./JS/动漫岛.js"},
	{"key":"去看吧","name":"去看吧","type":3,"api":"./JS/drpy.min.js","ext":"./JS/去看吧.js"},
	{"key":"爱弹幕","name":"爱弹幕","type":3,"api":"./JS/drpy.min.js","ext":"./JS/爱弹幕.js"},
	{"key":"异世界","name":"异世界","type":3,"api":"./JS/drpy.min.js","ext":"./JS/异世界.js"},
	{"key":"曲奇动漫","name":"曲奇动漫","type":3,"api":"./JS/drpy.min.js","ext":"./JS/曲奇动漫.js"},
	{"key":"妮可动漫","name":"妮可动漫","type":3,"api":"./JS/drpy.min.js","ext":"./JS/妮可动漫.js"},
	{"key":"维奇动漫","name":"维奇动漫","type":3,"api":"csp_XBPQ","searchable":1,"quickSearch":1,"filterable":0,"ext":"./XBPQ/维奇动漫.json"},
	{"key":"动漫巴士","name":"动漫巴士","type":3,"api":"csp_XBPQ","searchable":1,"quickSearch":1,"filterable":0,"ext":"./XBPQ/动漫巴士.json"},
	{"key":"Wogg","name":"云盘｜玩偶","type":3,"api":"csp_Wogg","ext":"http://127.0.0.1:9978/file/TVBox/token.txt"},
	{"key":"PanSearch","name":"云盘｜搜索","type":3,"api":"csp_PanSearch","ext":"http://127.0.0.1:9978/file/TVBox/token.txt"},
	{"key":"Dovx","name":"云盘｜七夜","type":3,"api":"csp_Dovx","ext":"http://127.0.0.1:9978/file/TVBox/token.txt"},
	{"key":"UpYun","name":"云盘｜云搜","type":3,"api":"csp_UpYun","ext":"http://127.0.0.1:9978/file/TVBox/token.txt"},
	{"key":"PanSou","name":"云盘｜盘搜","type":3,"api":"csp_PanSou","ext":"http://127.0.0.1:9978/file/TVBox/token.txt"},
	{"key":"我的小站","name":"云盘｜小站","type":3,"api":"csp_XYQHikerAL","playerType":1,"searchable":1,"quickSearch":1,"filterable":1,"ext":"./XYQHiker/我的小站.json"},
	{"key":"橘子盘搜","name":"云盘｜橘子","type":3,"api":"csp_XYQHikerAL","playerType":1,"searchable":1,"quickSearch":1,"filterable":1,"ext":"./XYQHiker/橘子盘搜.json"},
	{"key":"云盘资源分享","name":"云盘｜分享","type":3,"api":"csp_XYQHikerAL","playerType":1,"searchable":1,"quickSearch":1,"filterable":1,"ext":"./XYQHiker/云盘资源分享.json"},
	{"key":"土拨鼠搜索","name":"云盘｜土拨鼠","type":3,"api":"csp_XYQHiker","playerType":1,"searchable":1,"quickSearch":1,"filterable":1,"ext":"./XYQHiker/土拨鼠搜索.json"},
	{"key":"豆豆飞搜索","name":"云盘｜豆豆飞","type":3,"api":"csp_XYQHikerAL","playerType":1,"searchable":1,"quickSearch":1,"filterable":1,"ext":"./XYQHiker/豆豆飞搜索.json"},
	{"key":"阿里云盘网","name":"云盘｜云盘网","type":3,"api":"csp_XYQHikerAL","playerType":1,"searchable":1,"quickSearch":1,"filterable":1,"ext":"./XYQHiker/阿里云盘网.json"},
	{"key":"云盘分享社","name":"云盘｜分享社","type":3,"api":"csp_XYQBiu","searchable":1,"quickSearch":1,"filterable":1,"ext":"./XYQBiu/云盘分享社.json"},
	{"key":"Zhaozy","name":"云盘｜找资源","type":3,"api":"csp_Zhaozy","ext":"http://127.0.0.1:9978/file/TVBox/token.txt$$$Pizazz$$$xiaosage"},
	{"key":"4K HDR","name":"云盘｜4K HDR","type":3,"api":"csp_XYQHikerAL","playerType":1,"searchable":1,"quickSearch":1,"filterable":1,"ext":"./XYQHiker/4K HDR.json"}],
"parses":
	[{"name":"线路1","type":0,"url":"https://jx.777jiexi.com/player/?url="},
	{"name":"线路2","type":0,"url":"https://jx.jsonplayer.com/player/?url=","ext":{"flag":["qq","腾讯","qiyi","爱奇艺","奇艺","youku","优酷","mgtv","芒果","letv","乐视","pptv","PPTV","sohu","bilibili","哔哩哔哩","哔哩"],"header":{"User-Agent":"okhttp/4.1.0"}}},
	{"name":"线路3","type":1,"url":"http://27.124.4.42:4567/jhjson/ceshi.php?url=","ext":{"flag":["qq","腾讯","qiyi","爱奇艺","奇艺","youku","优酷","mgtv","芒果","letv","乐视","pptv","PPTV","sohu","bilibili","哔哩哔哩","哔哩"],"header":{"User-Agent":"okhttp/4.1.0"}}},
	{"name":"线路4","type":0,"url":"https://jx.bozrc.com:4433/player/?url=","ext":{"flag":["qq","腾讯","qiyi","爱奇艺","奇艺","youku","优酷","mgtv","芒果","letv","乐视","pptv","PPTV","sohu","bilibili","哔哩哔哩","哔哩"],"header":{"User-Agent":"okhttp/4.1.0"}}},
	{"name":"线路5","type":1,"url":"http://json.g9.pub:66/?url=","ext":{"flag":["qq","腾讯","qiyi","爱奇艺","奇艺","youku","优酷","mgtv","imgo","芒果","letv","乐视","pptv","PPTV","sohu","bilibili","哔哩哔哩","哔哩"],"header":{"User-Agent":"okhttp/4.1.0"}}},
	{"name":"线路6","type":0,"url":"https://www.yemu.xyz/?url=","ext":{"flag":["qq","腾讯","qiyi","iqiyi","爱奇艺","奇艺","youku","优酷","mgtv","芒果","letv","乐视","pptv","PPTV","sohu","bilibili","哔哩哔哩","哔哩"]}}],
"rules":
	[{"name":"量子广告","hosts":["vip.lz","hd.lz"],"regex":["#EXT-X-DISCONTINUITY\\r*\\n*#EXTINF:6.433333,[\\s\\S]*?#EXT-X-DISCONTINUITY","#EXTINF.*?\\s+.*?1o.*?\\.ts\\s+"]},
	{"name":"非凡广告","hosts":["vip.ffzy","hd.ffzy"],"regex":["#EXT-X-DISCONTINUITY\\r*\\n*#EXTINF:6.666667,[\\s\\S]*?#EXT-X-DISCONTINUITY","#EXTINF.*?\\s+.*?1o.*?\\.ts\\s+"]},
	{"name":"火山嗅探","hosts":["huoshan.com"],"regex":["item_id="]},
	{"name":"抖音嗅探","hosts":["douyin.com"],"regex":["is_play_url="]}],
"doh":
	[{"name":"AdGuard","url":"https://dns.adguard.com/dns-query","ips":["94.140.14.140","94.140.14.141"]},
	{"name":"Cloudflare","url":"https://cloudflare-dns.com/dns-query","ips":["1.1.1.1","1.0.0.1","2606:4700:4700::1111","2606:4700:4700::1001"]},
	{"name":"DNSWatch","url":"https://resolver2.dns.watch/dns-query","ips":["84.200.69.80","84.200.70.40"]},
	{"name":"Google","url":"https://dns.google/dns-query","ips":["8.8.4.4","8.8.8.8"]},
	{"name":"Quad9","url":"https://dns.quad9.net/dns-quer","ips":["9.9.9.9","149.112.112.112"]}],
"lives":
	[{"name":"live","type":0,"url":"./live.txt","playerType":1,"epg":"http://epg.112114.xyz/?ch={name}&date={date}","logo":"https://epg.112114.xyz/logo/{name}.png"}],
"flags":
	["youku","优酷","优 酷","优酷视频","qq","腾讯","腾 讯","腾讯视频","iqiyi","qiyi","奇艺","爱奇艺","爱 奇 艺","m1905","xigua","letv","leshi","乐视","乐 视","sohu","搜狐","搜 狐","搜狐视频","tudou","pptv","mgtv","芒果","imgo","芒果TV","芒 果 T V","bilibili","哔 哩","哔 哩 哔 哩"],
"ijk":
	[{"group":"软解码","options":
		[{"category":4,"name":"opensles","value":"0"},
		{"category":4,"name":"overlay-format","value":"842225234"},
		{"category":4,"name":"framedrop","value":"1"},
		{"category":4,"name":"soundtouch","value":"1"},
		{"category":4,"name":"start-on-prepared","value":"1"},
		{"category":1,"name":"http-detect-range-support","value":"0"},
		{"category":1,"name":"fflags","value":"fastseek"},
		{"category":2,"name":"skip_loop_filter","value":"48"},
		{"category":4,"name":"reconnect","value":"1"},
		{"category":4,"name":"max-buffer-size","value":"5242880"},
		{"category":4,"name":"enable-accurate-seek","value":"0"},
		{"category":4,"name":"mediacodec","value":"0"},
		{"category":4,"name":"mediacodec-auto-rotate","value":"0"},
		{"category":4,"name":"mediacodec-handle-resolution-change","value":"0"},
		{"category":4,"name":"mediacodec-hevc","value":"0"},
		{"category":1,"name":"dns_cache_timeout","value":"600000000"}]},
	{"group":"硬解码","options":
		[{"category":4,"name":"opensles","value":"0"},
		{"category":4,"name":"overlay-format","value":"842225234"},
		{"category":4,"name":"framedrop","value":"1"},
		{"category":4,"name":"soundtouch","value":"1"},
		{"category":4,"name":"start-on-prepared","value":"1"},
		{"category":1,"name":"http-detect-range-support","value":"0"},
		{"category":1,"name":"fflags","value":"fastseek"},
		{"category":2,"name":"skip_loop_filter","value":"48"},
		{"category":4,"name":"reconnect","value":"1"},
		{"category":4,"name":"max-buffer-size","value":"5242880"},
		{"category":4,"name":"enable-accurate-seek","value":"0"},
		{"category":4,"name":"mediacodec","value":"1"},
		{"category":4,"name":"mediacodec-auto-rotate","value":"1"},
		{"category":4,"name":"mediacodec-handle-resolution-change","value":"1"},
		{"category":4,"name":"mediacodec-hevc","value":"1"},
		{"category":1,"name":"dns_cache_timeout","value":"600000000"}]}],
"ads":
	["wan.51img1.com",
	"iqiyi.hbuioo.com",
	"vip.ffzyad.com",
	"https://lf1-cdn-tos.bytegoofy.com/obj/tos-cn-i-dy/455ccf9e8ae744378118e4bd289288dd",
	"mimg.0c1q0l.cn",
	"www.googletagmanager.com",
	"www.google-analytics.com",
	"mc.usihnbcq.cn",
	"mg.g1mm3d.cn",
	"mscs.svaeuzh.cn",
	"cnzz.hhttm.top",
	"tp.vinuxhome.com",
	"cnzz.mmstat.com",
	"www.baihuillq.com",
	"s23.cnzz.com",
	"z3.cnzz.com",
	"c.cnzz.com",
	"stj.v1vo.top",
	"z12.cnzz.com",
	"img.mosflower.cn",
	"tips.gamevvip.com",
	"ehwe.yhdtns.com",
	"xdn.cqqc3.com",
	"www.jixunkyy.cn",
	"sp.chemacid.cn",
	"hm.baidu.com",
	"s9.cnzz.com",
	"z6.cnzz.com",
	"um.cavuc.com",
	"mav.mavuz.com",
	"wofwk.aoidf3.com",
	"z5.cnzz.com",
	"xc.hubeijieshikj.cn",
	"tj.tianwenhu.com",
	"xg.gars57.cn",
	"k.jinxiuzhilv.com",
	"cdn.bootcss.com",
	"ppl.xunzhuo123.com",
	"xomk.jiangjunmh.top",
	"img.xunzhuo123.com",
	"z1.cnzz.com",
	"s13.cnzz.com",
	"xg.huataisangao.cn",
	"z7.cnzz.com",
	"xg.huataisangao.cn",
	"z2.cnzz.com",
	"s96.cnzz.com",
	"q11.cnzz.com",
	"thy.dacedsfa.cn",
	"xg.whsbpw.cn",
	"s19.cnzz.com",
	"z8.cnzz.com",
	"s4.cnzz.com",
	"f5w.as12df.top",
	"ae01.alicdn.com",
	"www.92424.cn",
	"k.wudejia.com",
	"vivovip.mmszxc.top",
	"qiu.xixiqiu.com",
	"cdnjs.hnfenxun.com",
	"cms.qdwght.com"]
}
